H:\Java\Evaluator_1430047_1\src\main\java\jephthia\evaluator\MyStack.java
H:\Java\Evaluator_1430047_1\src\main\java\exceptions\MisplacedOperatorException.java
H:\Java\Evaluator_1430047_1\src\main\java\jephthia\evaluator\DynamicArray.java
H:\Java\Evaluator_1430047_1\src\main\java\exceptions\InvalidParenthesisException.java
H:\Java\Evaluator_1430047_1\src\main\java\exceptions\DivideByZeroException.java
H:\Java\Evaluator_1430047_1\src\main\java\exceptions\InvalidOperandException.java
H:\Java\Evaluator_1430047_1\src\main\java\exceptions\MisplacedOperandException.java
H:\Java\Evaluator_1430047_1\src\main\java\jephthia\evaluator\MyQueue.java
H:\Java\Evaluator_1430047_1\src\main\java\jephthia\evaluator\Evaluator.java
H:\Java\Evaluator_1430047_1\src\main\java\jephthia\evaluator\App.java
